Chapter 5 Results | H1B Visa Analytics
…
It is very clear that industries belonging to the STEM (Science, Technology, Engineering and Mathematics) fields dominate in visa applications. This is great news for Data Scientists like us because it means companies in our industry are more than happy to sponsor us (what a relief). Additionally, the top job categories in each industry sector remain pretty much the same:

Computer and Mathematical Occupationis

Business and Financial Operations Occupations

Management Occupations

Architecture and Engineerring Occupations

Nevertheless, there is something surprising: the third industry with most H1-B applications is Colleges, Universities and Professional Schools. This means that these sectors are very interested in international workers and would then be great places to apply for jobs. We couldn’t resist to give a peek at the top employers in this last sector:

## # A tibble: 1,315 x 2
##    EMPLOYER_NAME                              Frequency
##    <chr>                                          <int>
##  1 MAYO CLINIC                                      587
##  2 UNIVERSITY OF MICHIGAN                           484
##  3 JOHNS HOPKINS UNIVERSITY                         351
##  4 THE LELAND STANFORD, JR UNIVERSITY               344
##  5 TRUSTEES OF THE UNIVERSITY OF PENNSYLVANIA       327
##  6 COLUMBIA UNIVERSITY                              309
##  7 UNIVERSITY OF CALIFORNIA, SAN FRANCISCO          290
##  8 UNIVERSITY OF PITTSBURGH                         252
##  9 EMORY UNIVERSITY                                 251
## 10 HARVARD UNIVERSITY                               249
## # … with 1,305 more rows
…
